{
  "project_info": {
    "project_number": "212981617905",
    "firebase_url": "https://dronebuddy-default-rtdb.asia-southeast1.firebasedatabase.app",
    "project_id": "dronebuddy",
    "storage_bucket": "dronebuddy.appspot.com"
  },
  "client": [
    {
      "client_info": {
        "mobilesdk_app_id": "1:212981617905:android:16221ee58b6f8771a34550",
        "android_client_info": {
          "package_name": "com.example.dronebuddy_controller"
        }
      },
      "oauth_client": [
        {
          "client_id": "212981617905-8b0kvgk3gasfn33djmfg06nksaldr7en.apps.googleusercontent.com",
          "client_type": 3
        }
      ],
      "api_key": [
        {
          "current_key": "AIzaSyCYkRRsyxstHbP-J1sdNwdAG3AO5fYYpYw"
        }
      ],
      "services": {
        "appinvite_service": {
          "other_platform_oauth_client": [
            {
              "client_id": "212981617905-8b0kvgk3gasfn33djmfg06nksaldr7en.apps.googleusercontent.com",
              "client_type": 3
            }
          ]
        }
      }
    }
  ],
  "configuration_version": "1"
}